{
    "generic.error": "Váratlan hiba lépett fel.",
    "generic.errorCodeblock": "Váratlan hiba lépett fel.\n```{{error}}```",
    "generic.errorID": "Váratlan hiba lépett fel. Ha úgy gondolod, ez nem történhetett volna meg, közöld a támogatási szerverünkkel a hiba azonosítóját: `{{errorID}}` .",
    "generic.processingTitle": "Feldolgozás",
    "generic.processingDescription": "A parancsot nem sikerült feldolgozni.",
    "generic.insufficientArgs": "Nem megfelelő mennyiségű argumentum észlelve, a parancsról több információt a {{prefix}}help {{command}} használata után láthatsz.",
    "generic.insufficientArg": "A(z) `{{arg}}` argumentum hiányzik.",
    "generic.invalidArg": "A(z) `{{arg}}` argumentum nem meghatározható.",
    "generic.guildOnlyError": "Ez a parancs csak szervereken használható.",
    "generic.argNoResponse": "Nincs válasz 30 másodpercig.",
    "generic.promptCancel": "Parancs megszakítva.",
    "generic.ratelimited": "Kérlek, várj {{sec}} másodpercig.",
    "info.healthHelp": "Megmutatja a bot shard-jainak egészségét",
    "info.healthTitle": "Shard- és Cluster-Egészség",
    "info.healthDown": "Offline",
    "info.healthStarting": "Indítás",
    "info.helpHelp": "Megmutatja ezt a parancsot",
    "info.helpUsage": "Használat",
    "info.helpPermNode": "Jogcsoport",
    "info.helpDescription": "Egy többfunkciós bot vagyok zenével, moderációval és még néhány egyéb vicces és hasznos funkcióval. Használd a `{{prefix}}help <parancs>`-ot, hogy bővebb információt találhass egy parancsomról.\n\n**Segítségre van szükséged? {{support_url}}\nBot meghívása: {{invite_url}}**",
    "info.helpDM": "Hesszeld a privát üzeneteid közt a parancsok listáját!",
    "info.statsUsersVC": "Csatlakoztatott felhasználók",
    "info.statsHelp": "Infó a botról",
    "info.clusterinfoHelp": "Infó az összes cluster-ről",
    "info.inviteInvite": "Bot meghívása: {{url}}",
    "info.inviteSupport": "Discord szerverünk: {{url}}",
    "info.inviteHelp": "Ad egy URL-t, hogy meghívhasd a botot.",
    "premium.redeemHelp": "Engedélyezi, hogy aktiválj egy Vexera Premium kulcsot. Ennek hatása lesz az összes szerveren, aminek **te** vagy a tulaja.",
    "premium.redeemInvalid": "Érvénytelen kulcs! Győződj meg róla, hogy a kód helyes, és nem használt.",
    "premium.redeemSuccess": "Sikeres! A Vexera Premium minden általad birtokolt szerveren aktiválva **{{days}}** napig.",
    "premium.redeemAlreadyDonator": "Már van aktív kulcsod, vagy előfizetésed!",
    "premium.redeemExtended": "Sikeres! A Vexera Premium előfizetésed meg lett hosszabbítva **{{days}}** napig.",
    "misc.serverinfoHelp": "Infó egy szerverről",
    "misc.serverinfoRoles": "Rangok",
    "misc.userinfoHelp": "Infó egy felhasználóról.",
    "misc.userinfoRoles": "Rangok",
    "perms.permsAddExists": "A jog már meg lett adva",
    "perms.permsAdd": "`{{perm}}` jog megadva `{{name}}` tagnak",
    "perms.permsRemoveError": "A jog nem lett megadva, tehát nem tudod megvonni.",
    "perms.permsRemove": "`{{perm}}` jog megvonva `{{name}}` tagtól",
    "perms.permsClear": "Minden jog megvonva `{{name}}` tagtól",
    "perms.permsListTitle": "{{name}} jogai",
    "perms.permsHelp": "Jogot rendel hozzá egy ranghoz. Az összes jogot megnézheted a `{{prefix}}perms nodes` paranccsal\nJogokat kezeli: SexyPEX",
    "perms.permsExample1": "Mindenkit feljogosít a zenefunkciók használatára",
    "perms.permsExample2": "Megtagadja a `Moderators` rangtól a cat parancs használatának jogát",
    "perms.permsExample3": "Megvonja `luke` felhasználótól a doge parancs használatának jogát",
    "perms.permsExample4": "A `Moderators` rang jogai",
    "perms.permsExample5": "Zenei jogok megvonása mindenkitől",
    "perms.permsExample6": "Jogok megvonása a `Moderators` rangtól",
    "perms.permsNodesTitle": "Jogcsoportok",
    "generic.permissionError": "Nincs jogod a parancs használatához (`{{permission}}` jog szükséges)",
    "generic.discordPermissionError": "A parancs használatához a `{{permission}}` jog szükséges."
}
