{
    "settings.localeNotComplete": "🚨 De vertaling voor {{langname}} is voor slechts {{percentage}}% voltooid.\nWil je helpen? Meer informatie op <{{url}}>.",
    "music.playerDuration": "Duur",
    "music.playerRequested": "Aangevraagd door",
    "music.playHelp": "Speelt een nummer af. Een groot aantal sites wordt ondersteund.",
    "music.playEnqueued": "`{{title}}` in de wachtrij geplaatst op plek `{{position}}`.",
    "music.playSearchResult": "Zoekresultaat",
    "music.playSearchUsage": "Zeg het nummer van de track die je wilt spelen (bijvoorbeeld '1') of zeg 'cancel' om te annuleren.",
    "music.noVoiceChannel": "Je zit niet in een spraakkanaal!",
    "music.noJoinPermission": "Ik heb geen toestemming om je spraakkanaal te joinen.",
    "music.enqueueMultiple": "`{{resultLength}}` nummers aan de wachtrij toegevoegd (verwerkt in `{{timeTaken}}` seconden)",
    "music.queueTrack": "{{index}}) {{title}} - Aangevraagd door {{requester}}",
    "music.trackNotFound": "Dat nummer is niet gevonden!",
    "music.viewWebsite": "Bekijk op vexera.io",
    "generic.error": "Er is een onverwachte fout opgetreden.",
    "generic.errorCodeblock": "Er is een onverwachte fout opgetreden.\n```{{error}}```",
    "generic.errorID": "Er is een onverwachte fout opgetreden. Als je denkt dat dit niet de bedoeling was, vertel de support server dan alsjeblieft de fout-ID: `{{errorID}}`.",
    "generic.processingTitle": "Aan het verwerken",
    "generic.processingDescription": "Dit commando is nog niet klaar met verwerken.",
    "generic.insufficientArgs": "Onjuiste hoeveelheid argumenten opgegeven, voor meer informatie over dit commando, zie `{{prefix}}help {{command}}`.",
    "generic.insufficientArg": "Je hebt het {{arg}} argument niet opgegeven.",
    "generic.invalidArg": "Kan het {{arg}} argument niet oplossen.",
    "generic.invalidArgValue": "Onbekende waarde {{value}} voor het {{arg}} argument.",
    "generic.guildOnlyError": "Dit commando kan alleen worden gebruikt in servers.",
    "generic.permissionError": "Je hebt geen toestemming om dit commando te gebruiken (Je hebt de permissie `{{permission}}` nodig)",
    "generic.discordPermissionError": "Je hebt de `{{permission}}` permissie nodig om dit commando te gebruiken.",
    "generic.argNoResponse": "Geen antwoord voor 30 seconden.",
    "generic.promptCancel": "Prompt geannuleerd.",
    "generic.ratelimited": "Wacht alsjeblieft {{sec}} seconden.",
    "generic.tipDashboard": "**Tip!** Je kunt dit instellen op {{url}}",
    "info.healthHelp": "Toont de status van de shards van de bot",
    "info.healthTitle": "Shard Status",
    "info.healthDown": "Offline",
    "info.healthStarting": "Opstarten",
    "info.healthUnknown": "Onbekend",
    "info.helpHelp": "Laat dit commando zien",
    "info.helpUsage": "Gebruik",
    "info.helpPermNode": "Permissie",
    "info.helpDescription": "Ik ben een discord bot met meerdere doelen zoals muziek, modereren en andere grappige en handige dingen.\nGebruik `{{prefix}}help <commando>` voor meer informatie over een commando.\n\n**Heb je hulp nodig? {{support_url}}\nInvite: {{invite_url}}**\n\n**Tip!** Je kan de commando's op onze website bekijken: **{{commands_url}}**",
    "info.helpConfigure": "Stel de bot online in op {{url}}",
    "info.helpCheckoutPremium": "Bekijk premium op {{url}}",
    "info.helpDM": "Controleer je privéberichten voor een lijst met commando's!",
    "info.statsUsersVC": "Vebronden Gebruikers",
    "info.statsHelp": "Toont statistieken over de bot",
    "info.clusterinfoHelp": "Toont informatie over alle clusters",
    "info.inviteInvite": "Invite: {{url}}",
    "info.inviteSupport": "Ondersteuning: {{url}}",
    "info.inviteHelp": "Krijg de URL om de bot te inviten.",
    "premium.redeemHelp": "Hiermee kun je een Vexera Premium code inwisselen. Let op: dit wordt geactiveerd op alle servers waar **jij** eigenaar bent.",
    "premium.redeemInvalid": "Ongeldige code! Controleer alsjeblieft dat hij klopt en niet eerder geclaimd is.",
    "premium.redeemSuccess": "Gelukt! Vexera Premium is nu ingeschakeld op elke server waar je eigenaar bent voor **{{days}}** dagen.",
    "premium.redeemAlreadyDonator": "Je hebt al een actieve code of abonnement!",
    "premium.redeemExtended": "Gelukt! Je Vexera Premium abonnement is verlengd met **{{days}}** dagen.",
    "misc.serverinfoHelp": "Toont informatie over een server",
    "misc.serverinfoRoles": "Rollen",
    "misc.userinfoHelp": "Toont informatie over een gebruiker.",
    "misc.userinfoRoles": "Rollen",
    "perms.permsAddExists": "Die permissie is al toegevoegd",
    "perms.permsAdd": "Permissie `{{perm}}` toegevoegd aan `{{name}}`",
    "perms.permsRemoveError": "Die permissie is nog niet toegevoegd, en kan dus niet worden verwijderd.",
    "perms.permsRemove": "Permissie `{{perm}}` van `{{name}}` verwijderd",
    "perms.permsClear": "Alle permissies van `{{name}}` verwijderd",
    "perms.permsListTitle": "Permissies voor {{name}}",
    "perms.permsHelp": "Wijst permissies toe aan een rol. Voor een lijst met permissies, zie {{prefix}}perms nodes\nPermissies geregeld door SexyPEX",
    "perms.permsExample1": "Geef iedereen muziek permissies",
    "perms.permsExample2": "Laat de `Moderators` rol niet toe om het cat commando te gebruiken",
    "perms.permsExample3": "Laat de gebruiker `luke` niet toe om het doge commando te gebruiken",
    "perms.permsExample4": "Somt de permissies voor de `Moderators` rol op",
    "perms.permsExample5": "Verwijder de muziek permissies van iedereen",
    "perms.permsExample6": "Verwijder de permissies voor de `Moderators` rol",
    "perms.permsNodesTitle": "Permissies",
    "perms.permsNodesDescription": "Voeg `-` toe aan het begin van een permissie om het te weigeren voor een gebruiker.",
    "admin.banHelp": "Verbant een lid en verwijdert zijn of haar berichtgeschiedenis van de afgelopen 24 uur.",
    "admin.banPermissionError": "Je hebt geen toestemming om deze gebruiker te verbannen.",
    "admin.banError": "Niet in staat deze gebruiker te verbannen.",
    "admin.banExample1": "Verbant gebruiker 'luke' voor 1 week en twee dagen met de reden 'Adverteren'",
    "admin.banExample2": "Verbant gebruiker 'luke'",
    "admin.unbanHelp": "Unbant een gebruiker.",
    "admin.unbanError": "Niet in staat om de gebruiker te unbannen.",
    "admin.kickHelp": "Schopt een gebruiker uit de server.",
    "admin.kickPermissionError": "Je hebt geen toestemming om deze gebruiker uit de server te schoppen.",
    "admin.kickError": "Niet in staat om de gebruiker uit de server te schoppen.",
    "admin.softbanHelp": "Softban een gebruiker (schopt de gebruiker uit de server en verwijdert al zijn of haar berichten van de afgelopen 24 uur)",
    "admin.vckickHelp": "Schopt een lid uit een spraakkanaal",
    "admin.vckickPermissionError": "Je hebt geen toestemming om deze gebruiker uit een spraakkanaal te schoppen.",
    "admin.vckickBotPermissionError": "Ik heb geen toestemming om leden te verplaatsen.",
    "admin.muteHelp": "Dempt een gebruiker.",
    "admin.mutePermissionError": "Je hebt geen toestemming om deze gebruiker te dempen.",
    "admin.muteSetupError": "Ik heb geen toestemming om de {{mutedRoleName}} op te zetten, controleer alsjeblieft of ik de juiste permissies heb.",
    "admin.muteError": "Niet in staat de gebruiker te dempen.",
    "admin.muteExample1": "Dempt gebruiker 'luke' voor 1 week en twee dagen met de reden 'Spammen'",
    "admin.muteExample2": "Dempt gebruiker 'luke'",
    "admin.roleHelp": "Beheer Rollen",
    "admin.roleExample1": "Voeg de `Admins` rol aan iedereen met de `Moderators` rol toe",
    "admin.roleExample2": "Voeg de gebruiker `luke` toe aan de rol `Admins`",
    "admin.roleExample3": "Verwijder de `Moderators` rol van iedereen",
    "admin.rolePermissionError": "Je hebt geen toestemming om die rol te beheren.",
    "admin.roleAddError": "Niet in staat die rol toe te voegen.",
    "admin.roleRemoveError": "Niet in staat die rol te verwijderen.",
    "admin.roleAddMass": "De rol toevoegen aan `{{count}}` leden, dit kan even duren...",
    "admin.roleRemoveMass": "De rol verwijderen van `{{count}}` leden, dit kan even duren...",
    "admin.cleanHelp": "Verwijdert berichten van een kanaal.",
    "admin.cleanExample1": "Verwijdert 10 berichten",
    "admin.cleanExample2": "Verwijdert 100 berichten",
    "admin.cleanExample3": "Verwijdert 100 berichten van de gebruiker `luke`",
    "admin.cleanBotPermissionError": "Ik heb geen toestemming om berichten te beheren.",
    "admin.cleanTooOldError": "Sommige berichten zijn niet verwijderd omdat ze te oud zijn.",
    "admin.warnHelp": "Maakt een waarschuwingsovertreding.",
    "settings.greetingHelp": "Stelt een welkom bericht in voor de server.",
    "settings.greetingExample1": "Stuurt `Welcome @luke to <jouw server naam>!` in #general als luke jouw server joint.",
    "settings.greetingExample2": "Verwelkomt een gebruiker in je server in een privébericht.",
    "settings.greetingExample3": "Schakelt de begroeting uit.",
    "settings.greetingTextUndefined": "Je hebt geen begroeting opgegeven!",
    "settings.greetingSet": "Succesvol de begroeting ingesteld.",
    "settings.greetingDisabled": "Succesvol de begroeting uitgeschakeld.",
    "settings.farewellHelp": "Stelt een bericht in voor wanneer een gebruiker de server verlaat.",
    "settings.farewellExample1": "Stuurt `luke heeft <jouw server> verlaten... doei doei luke..` in #general wanneer luke jouw server verlaat.",
    "settings.farewellExample2": "Schakelt het afscheidsbericht uit",
    "settings.farewellTextUndefined": "Je hebt geen afscheidsbericht opgegeven!",
    "settings.farewellSet": "Succesvol het afscheidsbericht ingesteld.",
    "settings.farewellDisabled": "Succesvol het afscheidsbericht uitgeschakeld.",
    "settings.prefixHelp": "Stelt de commando prefix in.",
    "settings.prefixExample1": "Verandert de prefix naar `!`",
    "settings.prefixExample2": "Schakelt de aangepast commando prefix uit.",
    "settings.prefixDisable": "Succesvol de prefix uitgeschakeld. Alle commando's moeten nu zo gebruikt worden: `{{prefix}}ping`",
    "settings.prefixSet": "Succesvol de prefix ingesteld. Alle commando's moeten nu zo gebruikt worden: `{{prefix}}ping`",
    "settings.logHelp": "Stelt een kanaal in waar alle gebeurtenissen in geplaatst worden.",
    "settings.logExists": "Gebeurtenis `{{event}}` is al toegevoegd!",
    "settings.logAdd": "Gebeurtenis(sen) {{events}} aan het kanaal `{{channel}}` toegevoegd",
    "settings.logRemoveError": "`{{event}}` is niet toegevoegd, en kan dus niet verwijdert worden.",
    "settings.modlogDisabled": "Succesvol het moderatie log kanaal uitgeschakeld.",
    "settings.logList": "Gebeurtenissen voor kanaal #",
    "settings.logCleared": "Alle gebeurtenissen voor #{{channel}} gewist.",
    "settings.logExample1": "Stuurt een bericht wanneer een gebruiker de server joint of verlaat",
    "settings.channeltoggleHelp": "Schakelt commando's uit in een kanaal.",
    "settings.channeltoggleEnabled": "Commando's ingeschakeld in dit kanaal.",
    "settings.channeltoggleDisabled": "Commando's uitgeschakeld in dit kanaal.",
    "settings.localeHelp": "Stelt een taal in. Bekijk `1{{prefix}}locale list` voor een lijst met talen.",
    "settings.localeExample1": "Verandert de taal naar Frans.",
    "settings.localeTitle": "Talen",
    "settings.localeCurrent": "Huidige taal: {{locale}}",
    "settings.localeSet": "Taal met succes aangepast.",
    "settings.userlocaleHelp": "Stelt de taal voor de gebruiker in. Bekijk `{{prefix}}userlocale list` voor een lijst met talen.\nGebruik `{{prefix}}userlocale disable` om de taal van de server te gebruiken.",
    "settings.userlocaleExample1": "Schakelt je persoonlijke taal uit, en gebruikt in plaats daarvan de taal van de server.",
    "settings.userlocaleTitle": "Talen",
    "settings.userlocaleCurrent": "Huidige taal: {{locale}}",
    "autorole.autoroleExample5": "Maak een lijst van alle automatische rollen.",
    "autorole.autoroleTitle": "Automatische rollen",
    "autorole.autoroleNoPermission": "Je kan geen rollen beheren die boven jezelf staan.",
    "fun.chucknorrisHelp": "Antwoord met een chuck norris grap.",
    "image.catHelp": "Toont een schattige kat!",
    "image.dogHelp": "Toont een schattige hond!",
    "image.dogeHelp": "Toont een schattige doge!",
    "image.weebTypes": "Geldige types: {{types}}",
    "image.weebError": "Afbeelding niet gevonden!",
    "fun.8ballHelp": "Kan op dit moment niet voorspellen",
    "fun.8ballReply": "De magische 8ball zegt... {{result}}",
    "fun.yomammaHelp": "Antwoordt met yo mamma grappen, ze zullen waarschijnlijk beledigend zijn!",
    "fun.urbanHelp": "Zoekt in de urban dictionary.",
    "fun.urbanError": "Kan die term niet vinden!",
    "meme.illegalHelp": "Maak iets illegaal!",
    "meme.illegalCharLimit": "We weten allemaal dat Trump stom is, hij kan dat niet verwerken!",
    "meme.illegalError": "Trump heeft het verknald, ik denk dat hij dit niet illegaal wilde maken!",
    "misc.invitedNoPerm": "Ik heb geen toestemming om uitnodigingen te bekijken.",
    "misc.invitedText": "{{username}} heeft {{count}} gebruikers uitgenodigd voor {{guild}}",
    "fun.asciiHelp": "Converteer tekst naar ASCII. Een lijst met lettertypes kan je vinden op https://github.com/patorjk/figlet.js/tree/master/fonts.",
    "misc.wolframError": "Er is iets mis gegaan.. misschien kun je wat anders proberen?",
    "premium.donatorsLimit": "De limiet is 50 karakters.",
    "premium.donatorsEmpty": "Geen berichten om te tonen!",
    "premium.premiumHelp": "Toont premium informatie.",
    "premium.statusHelp": "Toont premium status.",
    "music.playerQueueEnd": "Wachtrij afgesloten.",
    "music.playerInactive": "Kanaal verlaten in verband met inactiviteit.",
    "music.playerErrorDescription": "Er is een fout opgetreden bij het ophalen van informatie voor dit nummer.",
    "music.playerErrorPlayingDescription": "Er is een fout opgetreden bij het afspelen van dit nummer.",
    "music.playExample1": "Zoekt op youtube naar 'marble soda'",
    "music.playExample2": "Speelt een soundcloud nummer af, doormiddel van de directe URL",
    "music.playExample3": "Speelt een youtube video af, doormiddel van de directe URL",
    "music.botNoVoiceChannel": "Ik ben op dit moment geen muziek aan het afspelen!",
    "music.joinError": "Er is een fout opgetreden tijdens het joinen van je spraakkanaal.",
    "music.skipping": "Overslaan...",
    "music.skipAlreadyVoted": "Je hebt al gestemd om over te slaan!",
    "music.skipVoted": "Gestemd! 👍 {{votes}}/{{total}}",
    "music.joinHelp": "Joint een spraakkanaal.",
    "music.leaveHelp": "Verlaat het spraakkanaal.",
    "music.pauseHelp": "Pauzeert de muziek.",
    "music.resumeHelp": "Hervat de muziek.",
    "music.npNotPlaying": "Er is op dit moment niets aan het afspelen.",
    "music.queueHeader": "Wachtrij pagina {{page}}/{{num}}",
    "music.queueEmpty": "De wachtrij is leeg!",
    "music.queuePageNotFound": "Pagina niet gevonden!",
    "premium.volumeStatus": "Het volume is op dit moment {{percent}}%",
    "music.queryNotFound": "Geen resultaten gevonden.",
    "music.commandDonator": "Alleen premium abonnees kunnen dit commando gebruiken! Voor meer informatie, zie <https://vexera.io/premium>",
    "music.premiumSpotifyError": "Alleen Vexera Premium abonnees kunnen Spotify afspeellijsten laden! Voor meer informatie, zie <https://vexera.io/premium>.",
    "premium.volumeLimit": "Het volume instellen op 150%. Ik wil je trommelvliezen beschermen!",
    "music.repeatHelp": "Herhaalt een nummer.",
    "music.repeatExample1": "Schakel herhaling uit.",
    "music.repeatExample2": "Herhaal het huidige nummer.",
    "music.repeatExample3": "Herhaal de hele wachtrij.",
    "premium.autoplayExample2": "Schakelt automatisch afspelen uit.",
    "music.jumpHelp": "Springt naar een specifieke plek in de wachtrij.",
    "music.lyricsNotFound": "Songteksten niet gevonden!",
    "meme.mistakeHelp": "Voor grote fouten.",
    "meme.whodidthisHelp": "WIE HEEFT DIT GEDAAN? :joy: :joy: :joy:.",
    "meme.handicappedHelp": "Meneer! Deze plek is alleen voor gehandicapten!",
    "meme.magikHelp": "Het beste commando op de planeet.",
    "music.queueLimit": "De wachtrij kan maximaal 2000 nummers bevatten!",
    "premium.premiumTitle": "Wat is Vexera Premium?",
    "premium.statusType": "Type",
    "premium.statusNotDonator": "Deze gebruiker is geen premium abonnee!",
    "music.seekInvalid": "Ongeldige duur!",
    "music.deleteHelp": "Verwijdert een nummer uit de wachtrij.",
    "premium.transferSubscriptionExists": "De gebruiker heeft al een abonnement!",
    "premium.playlistNameMax": "Afspeellijst namen mogen maximaal 20 karakters lang zijn!",
    "premium.playlistCreated": "Afspeellijst `{{name}}` aangemaakt!",
    "premium.playlistNotFound": "Afspeellijst `{{name}}` niet gevonden!",
    "premium.playlistLoad": "Afspeellijst `{{name}}` in de wachtrij geladen!",
    "premium.playlistDeleted": "Afspeellijst `{{name}} verwijderd!",
    "premium.playlistExample1": "Maakt een afspeellijst 'Dubstep' van de nummers op dit moment in de wachtrij.",
    "premium.playlistExample3": "Verwijdert de afspeellijst 'Dubstep'",
    "premium.playlistExample5": "Maakt een lijst van alle afspeellijsten van deze server.",
    "premium.playlistNoneFound": "Geen afspeellijsten gevonden!",
    "premium.playlistLoadHelp": "Gebruik `{{prefix}}playlist load` om een afspeellijst te laden.",
    "modlog.invalidCase": "Ongeldig dossier!",
    "modlog.line1": "**{{type}}** | Dossier{{caseID}}",
    "modlog.line2": "**Gebruiker**: {{username}}#{{discriminator}} ({{id}}) (<@{{id}}>)",
    "modlog.line3": "**Reden**: {{reason}}",
    "modlog.line4": "**Moderator**: {{username}}#{{discriminator}}",
    "modlog.line6": "**Duur**: {{duration}}",
    "admin.warn": "Waarschuwt een gebruiker.",
    "admin.infractionsHelp": "Toont overtredingen van een gebruiker.",
    "admin.infractionsNotFound": "Pagina niet gevonden!",
    "admin.infractionsNoReason": "Geen reden opgegeven",
    "modlogtype.warn": "Waarschuwing",
    "meme.logoHelp": "Maakt een vexera logo met aangepaste tekst!",
    "misc.remindHelp": "Stelt een herinnering in.",
    "misc.remindExample1": "Vexera zal je over 10 minuten herinneren om Fortnite te spelen.",
    "misc.remindNoTime": "Geen tijd opgegeven!",
    "misc.remindInvalid": "Ongeldige tijd!",
    "misc.remindSuccess": "Oké, ik zal je herinneren om {{text}.",
    "premium.bassStatus": "De bas is op dit moment ingesteld op `{{bass}}`",
    "meme.memeHelp": "Stuurt een meme in dit kanaal.",
    "games.osuNotFound": "Gebruiker niet gevonden.",
    "games.osuGames": "Games gespeeld",
    "games.osuPp": "Prestatiepunten",
    "games.osuAccuracy": "Nauwkeurigheid",
    "generic.poweredBy": "Aangestuurd door {{url}}",
    "info.pingHelp": "Pong!",
    "info.statsVersion": "Versie",
    "info.statsLibrary": "Bibliotheek",
    "info.statsOwner": "Eigenaar",
    "info.statsGuilds": "Servers",
    "info.statsUsers": "Gebruikers",
    "info.statsUptime": "Uptime",
    "info.statsStreams": "Spraak Streams",
    "info.statsCluster": "Cluster",
    "info.statsShard": "Shard",
    "info.statsWebsite": "Website",
    "info.statsSupport": "Ondersteuning",
    "info.statsInvite": "Uitnodigen",
    "misc.serverinfoOwner": "Eigenaar",
    "misc.serverinfoMembers": "Leden",
    "misc.serverinfoMembersValue": "{{members}} ({{bots}} bots)",
    "misc.serverinfoVerification": "Verificatieniveau",
    "misc.serverinfoChannels": "Kanalen",
    "misc.userinfoUsername": "Gebruikersnaam",
    "misc.userinfoDiscriminator": "Discriminator",
    "misc.userinfoCreation": "Gebruiker aangemaakt op",
    "music.playerErrorTitle": "Fout",
    "misc.serverinfoID": "ID",
    "misc.userinfoID": "ID",
    "settings.logRemove": "Gebeurtenis(sen) {{events}} van kanaal `{{channel}}` verwijderd",
    "settings.logExample2": "Plaatst overtredingen (bans, kicks) in #mod-log",
    "settings.modlogSet": "Succesvol het moderatie log kanaal ingesteld.",
    "settings.accessroleHelp": "Stelt een rol in die mensen moeten hebben om de bot te gebruiken. Gebruik `{{prefix}}accessrole disable` om uit te schakelen",
    "settings.accessroleDisabled": "De toegangsrol is met succes uitgeschakeld.",
    "settings.accessroleSet": "De toegangsrol is met succes ingesteld.",
    "settings.userlocaleSet": "Gebruikers taal is met succes ingesteld.",
    "autorole.autoroleHelp": "Toekennen van rollen. Zorg ervoor dat de rol voor mij boven de rol is die je wilt geven, anders heb ik geen toestemming.",
    "autorole.autoroleExample1": "Geef de rol `Humans` aan gebruikers bij het joinen."
}
