{
    "generic.error": "Um erro inesperado ocorreu.",
    "generic.errorCodeblock": "Um erro inesperado ocorreu.\n```{{error}}```",
    "generic.errorID": "Um erro inesperado ocorreu. Se acredita que isto não era suposto acontecer, por favor mostre o erro de ID: `{{errorID}}` no servidor de suporte.",
    "generic.processingTitle": "A processar",
    "generic.processingDescription": "Este comando não acabou de processar.",
    "generic.insufficientArgs": "Argumentos especificados incorretos. Para mais informação sobre este comando, veja `{{prefix}}help {{command}}`.",
    "generic.insufficientArg": "Você não especificou o argumento `{{arg}}`.",
    "generic.invalidArg": "Incapaz de resolver o argumento `{{arg}}`.",
    "generic.guildOnlyError": "Este comando somente pode ser usado em servidores.",
    "generic.permissionError": "Você não tem permissão para usar este comando (necessita da permissão `{{permission}}`)",
    "generic.discordPermissionError": "Você necessita da permissão `{{permission}}` para usar este comando.",
    "generic.argNoResponse": "Sem resposta por 30 segundos.",
    "generic.promptCancel": "Comando cancelado.",
    "generic.ratelimited": "Por favor, aguarde {{sec}} segundos.",
    "info.healthHelp": "Mostra a saúde das shards do bot",
    "info.healthTitle": "Saúde da Shard",
    "info.healthDown": "Em baixo",
    "info.healthStarting": "A começar",
    "info.helpHelp": "Mostra este comando",
    "info.helpUsage": "Uso",
    "info.helpPermNode": "Permissão necessária",
    "info.helpDescription": "Eu sou um bot de discord multi-propósito que pode fazer música, moderação e outras coisas divertidas e úteis.\nUse `{{prefix}}help <comando>` para uma informação mais extensa sobre um comando.\n\n**À procura de ajuda? {{support_url}}\nAdicione-me: {{invite_url}}**\n\n**Dica!** Pode ver os comandos no nosso website: **{{commands_url}}**",
    "info.helpDM": "Veja as suas mensagens privadas para a lista dos comandos!",
    "info.statsHelp": "Mostra estatísticas acerca do bot",
    "info.clusterinfoHelp": "Mostra informação sobre todas as clusters",
    "info.inviteInvite": "Convite: {{url}}",
    "info.inviteSupport": "Suporte: {{url}}",
    "info.inviteHelp": "Obtém o URL para convidar o bot.",
    "misc.serverinfoHelp": "Mostra informações acerca de um servidor",
    "misc.userinfoHelp": "Mostra informações acerca de um utilizador.",
    "misc.userinfoCreation": "Utilizador criado em",
    "perms.permsAddExists": "Essa permissão já foi adicionada",
    "perms.permsAdd": "Adicionada a permissão `{{perm}}` a `{{name}}`",
    "perms.permsRemoveError": "Essa permissão não foi adicionada, logo, não pode ser removida.",
    "perms.permsRemove": "Removida a permissão `{{perm}}` de `{{name}}`",
    "perms.permsClear": "Limpas todas as permissões de `{{name}}`",
    "perms.permsListTitle": "Permissões para {{name}}",
    "perms.permsHelp": "Atribui permissões a um utilizador ou um cargo. Para a lista de permissões, veja {{prefix}}perms nodes\nPermissões controladas por SexyPEX",
    "perms.permsNodesDescription": "Adicione `-` à frente de uma permissão para a negar de um utilizador.",
    "admin.banHelp": "Bane um membro e elimina as suas mensagens das últimas 24 horas.",
    "admin.banPermissionError": "Você não tem permissões para banir este utilizador.",
    "admin.banError": "Incapaz de banir o utilizador.",
    "admin.kickHelp": "Expulsa um utilizador.",
    "admin.kickPermissionError": "Você não tem permissões para expulsar este utilizador.",
    "admin.kickError": "Incapaz de expulsar o utilizador.",
    "info.pingHelp": "Pong!",
    "info.statsVersion": "Versão",
    "info.statsLibrary": "Biblioteca",
    "info.statsOwner": "Dono",
    "info.statsGuilds": "Servidores",
    "info.statsUsers": "Utilizadores",
    "info.statsStreams": "Transmissões de Voz",
    "info.statsCluster": "Grupo",
    "info.statsShard": "Shard",
    "info.statsWebsite": "Website",
    "info.statsSupport": "Suporte",
    "info.statsInvite": "Convite",
    "misc.serverinfoOwner": "Dono",
    "misc.serverinfoMembers": "Membros",
    "misc.serverinfoMembersValue": "{{members}} ({{bots}} bots)",
    "misc.serverinfoVerification": "Nível de Verificação",
    "misc.serverinfoChannels": "Canais",
    "misc.userinfoUsername": "Nome de Utilizador",
    "misc.userinfoDiscriminator": "Discriminador",
    "music.playerErrorTitle": "Erro",
    "music.playerDuration": "Duração",
    "misc.serverinfoID": "ID",
    "misc.userinfoID": "ID",
    "premium.redeemHelp": "Permite que utilize uma chave premium Vexera. Por favor note que vai ser ativado em todos os servidores que **você** é dono.",
    "premium.redeemInvalid": "Chave inválida! Por favor garanta que está correta e que ainda não foi usada.",
    "premium.redeemSuccess": "Sucesso! Vexera premium está agora ativo em todos os servidores que você é dono durante **{{days}}** dias.",
    "premium.redeemAlreadyDonator": "Você já tem uma chave ou subscrição ativa!",
    "premium.redeemExtended": "Sucesso! A sua subscrição Vexera Premium foi extending por **{{days}}** dias.",
    "misc.serverinfoRoles": "Cargos",
    "misc.userinfoRoles": "Cargos",
    "perms.permsExample1": "Dá a todos a permissão music",
    "perms.permsExample2": "Não permite que o cargo `Moderators` use o comando cat",
    "perms.permsExample3": "Não permite que o utilizador `luke` use o comando doge",
    "perms.permsExample4": "Lista as permissões do cargo `Moderators`",
    "perms.permsExample5": "Remove a permissão de música de todos",
    "perms.permsExample6": "Limpa as permissões do cargo `Moderators`",
    "perms.permsNodesTitle": "Permissões",
    "admin.softbanHelp": "Softbane um utilizador (expulsa o utilizador limpa todas as suas mensagens das últimas 24 horas)",
    "admin.vckickHelp": "Expulsa um membro de um canal de voz",
    "admin.vckickPermissionError": "Você não tem permissão para expulsar este utilizador do canal de voz.",
    "admin.vckickBotPermissionError": "Eu não tenho permissão para Mover Membros.",
    "admin.muteHelp": "Silencia um utilizador.",
    "admin.mutePermissionError": "Você não tem permissão para silenciar este utilizador.",
    "admin.muteSetupError": "Eu não tenho permissão para configurar o cargo {{mutedRoleName}}. Por favor, veja se eu tenho as permissões corretas.",
    "admin.muteError": "Não consegui silenciar o utilizador.",
    "admin.roleHelp": "Gerenciar Cargos",
    "admin.roleExample1": "Adiciona o cargo `Admins` a todos os utilizadores com o cargo `Moderators`",
    "admin.roleExample2": "Adiciona o utilizador `luke` ao cargo `Admins`",
    "admin.roleExample3": "Remove o cargo `Moderators` de todos os utilizadores",
    "admin.rolePermissionError": "Você não tem permissão para gerenciar esse cargo.",
    "admin.roleAddError": "Não consegui adicionar esse cargo.",
    "admin.roleRemoveError": "Não consegui remover esse cargo.",
    "admin.roleAddMass": "A adicionar o cargo a `{{count}}` membros. Isto pode demorar um pouco...",
    "admin.roleRemoveMass": "A remover o cargo de `{{count}}` membros. Isto pode demorar um pouco...",
    "admin.cleanHelp": "Limpa as mensagens de um canal.",
    "admin.cleanExample1": "Limpa 10 mensagens",
    "admin.cleanExample2": "Limpa 100 mensagens",
    "admin.cleanExample3": "Limpa 100 mensagens do utilizador `luke`",
    "admin.cleanBotPermissionError": "Eu não tenho permissão para gerenciar mensagens.",
    "settings.greetingHelp": "Configura uma mensagem de boas vindas para o servidor.",
    "settings.greetingExample1": "Envia `Welcome @luke to <your server name>!` para o #general quando o luke entra no seu servidor.",
    "settings.greetingExample2": "Dá as boas vindas a um utilizador nas mensagens privadas.",
    "settings.greetingExample3": "Desativa a mensagem de boas vindas.",
    "settings.greetingTextUndefined": "Você não especificou uma mensagem de boas vindas!",
    "settings.greetingSet": "Configurei a mensagem de boas vindas com sucesso.",
    "settings.greetingDisabled": "Desativei a mensagem de boas vindas com sucesso.",
    "settings.farewellHelp": "Configura uma mensagem para quando um utilizador sai do servidor.",
    "settings.farewellExample1": "Envia `luke left <your sever>... bye bye luke..` para o #general quando o luke sai do seu servidor.",
    "settings.farewellExample2": "Desativa a mensagem de despetida",
    "settings.farewellTextUndefined": "Você não especificou uma mensagem de despedida!",
    "settings.farewellSet": "Configurei a mensagem de despedida com sucesso.",
    "settings.farewellDisabled": "Desativei a mensagem de despedida com sucesso.",
    "settings.prefixHelp": "Configura o prefixo dos comandos.",
    "settings.prefixExample1": "Configura o prefixo para `!`",
    "settings.prefixExample2": "Desativa o prefixo customizado dos comandos.",
    "settings.prefixDisable": "Desativei o prefixo com sucesso. Todos os comandos devem agora ser usados como: `{{prefix}}ping`",
    "settings.prefixSet": "Configurei o prefixo com sucesso. Todos os comandos devem agora ser usados como: `{{prefix}}ping`",
    "settings.logHelp": "Configura canais que terão eventos postados neles.",
    "settings.channeltoggleHelp": "Desativa os comandos num canal.",
    "settings.channeltoggleEnabled": "Ativei os comandos neste canal.",
    "settings.channeltoggleDisabled": "Desativei os comandos neste canal.",
    "settings.accessroleHelp": "Configura um cargo que somente as pessoas que o possuem podem usar o bot. Use `{{prefix}}accessrole disable` para desativar",
    "settings.accessroleDisabled": "Desativei o cargo de acesso com sucesso.",
    "settings.accessroleSet": "Configurei o cargo de acesso com sucesso.",
    "settings.localeHelp": "Configura um idioma. Veja `{{prefix}}locale list` para uma lista de idiomas.",
    "settings.localeTitle": "Idiomas",
    "settings.localeCurrent": "Idioma atual: {{locale}}",
    "settings.localeSet": "Configurei o idioma com sucesso.",
    "settings.userlocaleHelp": "Configura o idioma para o utilizador. Veja `{{prefix}}userlocale list` para uma lista de idiomas.\nUse `{{prefix}}userlocale disable` para usar o idioma do servidor.",
    "settings.userlocaleTitle": "Idiomas",
    "settings.userlocaleCurrent": "Idioma atual: {{locale}}",
    "settings.userlocaleSet": "Configurei o idioma para o utilizador com sucesso.",
    "autorole.autoroleHelp": "Atribui cargos. Garanta que o meu cargo está acima do cargo que quer atribuir. Se não, não terei permissão.",
    "autorole.autoroleExample1": "Dá o cargo `Humans` aos utilizadores que entrarem.",
    "autorole.autoroleExample2": "Os utilizadores agora podem fazer `{{prefix}}getrole Announcements` para ter esse cargo.",
    "autorole.autoroleExample3": "Os bots terão este cargo quando entrarem.",
    "autorole.autoroleExample4": "Removi o cargo automático para `Humans`.",
    "autorole.autoroleExample5": "Lista todos os cargos automáticos.",
    "autorole.autoroleAdd": "Adicionei o cargo `{{role}}` com o tipo `{{type}}` com sucesso.",
    "autorole.autoroleTypeRemove": "Removi todos os cargos com o tipo `{{type}}`.",
    "autorole.autoroleRoleRemove": "Removi o cargo `{{role}}` com o tipo `{{type}}`.",
    "autorole.autoroleTitle": "Cargos automáticos",
    "autorole.getroleHelp": "Obtem um cargo com a condição `get` do {{prefix}}autorole",
    "autorole.getroleNoConditon": "Este cargo não tem a condição `get`, o dono pode adicioná-lo fazendo `{{prefix}}autorole add get {{role}}`.",
    "autorole.autoroleNoPermission": "Você não pode gerenciar cargos acima do seu.",
    "fun.chucknorrisHelp": "Responde com uma piada do chuck norris.",
    "image.catHelp": "Mostra um gato fofo!",
    "image.dogHelp": "Mostra um cão fofo!",
    "image.dogeHelp": "Mostra um doge fofo!",
    "generic.poweredBy": "Distribuído por {{url}}",
    "image.weebHelp": "Mostra umas imagens weeb. Veja `{{prefix}}weeb types` para uma lista de tipos.",
    "image.weebTypes": "Tipos válidos: {{types}}",
    "image.weebError": "Imagem não encontrada!",
    "fun.8ballHelp": "Não consigo prever agora",
    "fun.8ballReply": "A 8ball mágica diz... {{result}}",
    "fun.yomammaHelp": "Responde com piadas da tua mãe que provavelmente serão ofensivas!",
    "fun.urbanHelp": "Procura no urban dictionary.",
    "fun.urbanError": "Não consegui encontrar esse termo!",
    "image.xkcdHelp": "Obtém um XKCD Comic",
    "meme.illegalHelp": "Faz algo ilegal!",
    "meme.illegalCharLimit": "Todos sabemos que o Trump é estupido. Ele não pode processar isso!",
    "meme.illegalError": "O Trump estragou tudo. Eu acho que ele não quer fazer isso ilegal!",
    "misc.botlistHelp": "Mostra a lista de bots do carbonitex.",
    "misc.invitedHelp": "Mostra quantos utilizadores alguém convidou para o servidor.",
    "misc.invitedNoPerm": "Eu não tenho permissão para ver os convites.",
    "misc.invitedText": "O {{username}} convidou {{count}} utilizadores para o servidor {{guild}}",
    "fun.asciiHelp": "Converte texto em ASCII. A lista de fontes pode ser encontrada em https://github.com/patorjk/figlet.js/tree/master/fonts.",
    "fun.asciiExample1": "Mostra `beep` na fonte `ghost`",
    "misc.wolframHelp": "Faz uma consulta wolfram.",
    "misc.wolframError": "Algo aconteceu errado... talvez tente outra coisa?",
    "premium.donatorsHelp": "Mostra o top 10 doadores com uma mensagem específica configurada pelo doador. Doadores podem configurar a sua mensagem usando `{{prefix}}donators <mensagem>`",
    "premium.donatorsLimit": "O limite é de 50 carácteres.",
    "music.playerQueueEnd": "Lista concluida.",
    "music.playerInactive": "Saí do canal devido a inatividade.",
    "music.playerErrorDescription": "Ocorreu um erro ao extrair informações para esta faixa.",
    "music.playerErrorPlayingDescription": "Ocorreu um erro ao tentar reproduzir esta faixa.",
    "music.playerRequested": "Pedida por",
    "music.playHelp": "Toca uma música. É suportada uma variedade de sites.",
    "music.playExample1": "Procura no youtube por 'marble soda'",
    "music.playExample2": "Reproduz uma faixa do soundcloud, usando o URL direto",
    "music.playExample3": "Toca um vídeo do youtube, usando o URL direto",
    "music.playEnqueued": "Adicionei `{{title}}` na posição `{{position}}` da lista.",
    "music.playSearchResult": "Resultado da procura",
    "music.playSearchUsage": "Diga o número de uma faixa que deseja tocar (exemplo: '1') ou 'cancel' para cancelar.",
    "music.noVoiceChannel": "Você não está num canal de voz!",
    "music.botNoVoiceChannel": "De momento não estou a reproduzir música!",
    "music.noJoinPermission": "Eu não tenho permissão para entrar no seu canal de voz.",
    "music.joinError": "Um erro ocorreu ao entrar no seu canal de voz.",
    "music.enqueueMultiple": "Adicionadas `{{resultLength}}` faixas à fila (processadas em `{{timeTaken}}` segundos)",
    "music.skipHelp": "Vota para pular uma faixa. Utilizadores com a permissão `music.forceskip` podem pular instantaneamente.",
    "music.skipping": "Pulando...",
    "music.skipAlreadyVoted": "Você já votou para pular!",
    "music.skipVoted": "Votado! 👍 {{votes}}/{{total}}",
    "music.joinHelp": "Entra num canal de voz.",
    "music.leaveHelp": "Sai do canal de voz.",
    "music.pauseHelp": "Pausa a música.",
    "music.resumeHelp": "Resume a música.",
    "music.npHelp": "Mostra o que está a tocar neste momento.",
    "music.npNotPlaying": "Não está nada a tocar neste momento.",
    "music.clearHelp": "Limpa a lista.",
    "music.shuffleHelp": "Baralha a fila.",
    "music.backHelp": "Vai para a última faixa tocada.",
    "music.queueHelp": "Mostra a fila de faixas atual.",
    "music.queueHeader": "Página da lista {{page}}/{{num}}",
    "music.queueEmpty": "A lista está vazia!",
    "music.queuePageNotFound": "Página não encontrada!",
    "music.queueTrack": "{{index}} {{title}} - Pedida por {{requester}}",
    "premium.volumeHelp": "Configura o volume da música que está a tocar.",
    "premium.volumeStatus": "O volume está a {{percent}}% neste momento",
    "music.trackNotFound": "Essa música não foi encontrada!",
    "music.commandDonator": "Somente subscritores premium podem usar este comando! Para mais informações, veja <https://vexera.io/premium>",
    "premium.volumeLimit": "Configurei o volume para 150%. Eu quero proteger os seus ouvidos!",
    "music.repeatHelp": "Repete uma faixa.",
    "music.repeatExample1": "Desativa a repetição.",
    "music.repeatExample2": "Repete a faixa atual.",
    "music.repeatExample3": "Repete a lista inteira.",
    "music.searchHelp": "Permite que você escolha uma faixa para reproduzir com um menu de seleção chique.",
    "music.inactiveDisconnect": "Saí do canal de voz devido a inatividade.",
    "music.donationMessage": "Se você gosta da reprodução de música do Vexera, veja o Vexera Premium de modo a ter o melhor do Vexera. <https://vexera.io/premium>",
    "premium.autoplayHelp": "Define uma faixa ou lista de reprodução ou livestream para reproduzir enquanto a fila está vazia.",
    "premium.autoplayExample1": "Ativa o autoplay com um URL específico.",
    "premium.autoplayExample2": "Desativa o autoplay.",
    "music.jumpHelp": "Salta para um lugar específico na lista.",
    "premium.dumpHelp": "Cria um URL com informação acerca da lista de músicas que pode ser carregado com {{prefix}}play. Use {{prefix}}dump all para fazer dump à lista inteira.",
    "premium.dumpCreated": "Dump criado! {{url}} - Use {{prefix}}play para o carregar.",
    "music.lyricsHelp": "Obtém as letras de uma faixa ou da faixa atualmente em reprodução.",
    "music.lyricsNoQuery": "Faixa não especificada!",
    "music.lyricsNotFound": "Letra não encontrada!",
    "info.nodeinfoHelp": "Mostra informação dos servidores de voz.",
    "meme.drakeHelp": "Faz um meme do drake. Os argumentos podem ser um utilizador ou um URL de uma imagem.",
    "meme.mistakeHelp": "Para grandes erros.",
    "meme.whodidthisHelp": "QUEM FEZ ISTO? :joy: :joy: :joy:.",
    "meme.handicappedHelp": "Senhor! Este sítio é só para deficientes!",
    "meme.magikHelp": "O melhor comando no planeta.",
    "meme.needsmorejpegHelp": "Faz com que as imagens fiquem piores.",
    "meme.gmagikHelp": "{{prefix}}magik mas para gifs.",
    "music.queueLimit": "A fila só pode conter 2000 faixas!",
    "premium.premiumTitle": "O que é o Vexera Premium?",
    "premium.premiumInfo": "O Vexera Premium oferece uma variedade de características por um preço pequeno. Aprenda mais em https://vexera.io/premium",
    "premium.premiumStatus": "Verifica o status premium de um utilizador.",
    "premium.statusAmount": "Quantidade Doada",
    "premium.statusDatePledged": "Data da Doação",
    "premium.statusDeclined": "**Aviso:** O pagamento desta inscrição foi recusado. Os recursos premium do utilizador serão desativados no dia 5 deste mês.",
    "premium.statusExpiry": "Expiração",
    "premium.statusType": "Tipo",
    "premium.statusNotDonator": "Este utilizador não é um subscritor premium!",
    "info.statsUsersVC": "Utilizadores conectados",
    "admin.banExample1": "Bane o utilizador 'luke' por 1 semana e dois dias com a razão 'Advertising'",
    "admin.banExample2": "Bane o utilizador 'luke'",
    "admin.muteExample1": "Silencia o utilizador 'luke' durante 1 semana e dois dias com a razão 'Spamming'",
    "admin.muteExample2": "Silencia o utilizador 'luke'",
    "settings.modlogDisabled": "Desativei o canal de registos de moderação com sucesso.",
    "settings.modlogSet": "Configurei o canal de registos de moderação com sucesso.",
    "music.seekHelp": "Reproduz a música a partir de outro ponto no tempo.",
    "music.seekInvalid": "Duração inválida!",
    "info.premiumExpiring": "A sua subscrição do Vexera Premium vai expirar em {{expire}}. Para manter a subscrição, por favor visite https://vexera.io/premium.",
    "music.deleteHelp": "Exclui uma faixa da fila.",
    "music.deletePlaying": "Não consigo excluir a faixa que estou a reproduzir no momento.",
    "music.deleteRemoved": "Removi com sucesso a música `{{name}}` da fila.",
    "premium.transferHelp": "Transfere uma subscrição premium para outro utilizador. Use `{{prefix}}transfer disable` para desativar.",
    "premium.transferSubscriptionExists": "Esse utilizador já tem uma subscrição!",
    "premium.transferActive": "Você já tem uma transfêrencia ativa!",
    "premium.transferTransferred": "Transferi a subscrição para o utilizador **{{user}}** com sucesso!",
    "premium.transferDisable": "Desativei a transfêrencia com sucesso!",
    "games.fortniteError": "Erro ao coletar status: {{error}}",
    "games.fortniteHelp": "Procura por um utilizador no fortnite.",
    "music.viewWebsite": "Ver em vexera.io",
    "premium.playlistNameMax": "Nomes de playlists só podem ter 20 caracteres no máximo!",
    "premium.playlistCreated": "Criada a playlist `{{name}}`!",
    "premium.playlistNotFound": "Playlist com o nome `{{name}}` não encontrada!",
    "premium.playlistLoad": "A playlist `{{name}}` foi carregada para a lista!",
    "premium.playlistDeleted": "A playlist `{{name}}` foi eliminada!",
    "premium.playlistHelp": "Permite-lhe salvar e carregar listas.",
    "premium.playlistExample1": "Cria a lista de reprodução 'Dubstep' das faixas atualmente na fila.",
    "premium.playlistExample2": "Carrega a lista de reprodução 'Dubstep' na fila....",
    "premium.playlistExample3": "Elimina a playlist 'Dubstep'",
    "premium.playlistExample4": "Cria um dump URL para a playlist 'Dubstep'",
    "modlog.none": "Você não tem um registo de moderação configurado!",
    "modlog.invalidCase": "Caso inválido!",
    "modlog.line1": "**{{type}}** | Caso {{caseID}}",
    "modlog.line2": "**Utilizador**: {{username}}#{{discriminator}} ({{id}}) (<@{{id}}>)",
    "modlog.line3": "**Razão**: {{reason}}",
    "modlog.line4": "**Moderador**: {{username}}#{{discriminator}}",
    "modlog.noReason": "_Moderador, por favor use `{{prefix}}reason {{caseID}} <reason>`_",
    "admin.unbanError": "Não consegui banir o utilizador.",
    "settings.logExists": "O evento `{{event}}` já foi adicionado!",
    "settings.logAdd": "Adicionado(s) o(s) evento(s) {{events}} ao canal `{{channel}}`",
    "settings.logRemoveError": "O evento `{{event}}` ainda não foi adicionado, portanto, não pode ser removido.",
    "settings.logRemove": "Removido(s) o(s) evento(s) {{events}} do canal `{{channel}}`",
    "settings.logList": "Eventos do canal #{{channel}}",
    "settings.logCleared": "Limpei todos os eventos do canal `#{{channel}}`.",
    "settings.logExample1": "Envia uma mensagem quando um utilizador entra ou sai",
    "settings.logExample2": "Posta infrações (bans, expulsões) no #mod-log",
    "modlog.line5": "**Emitido**: {{date}}",
    "admin.reasonHelp": "Define a razão de uma infração do registo de moderação.",
    "admin.warn": "Avisa um utilizador.",
    "admin.infractionsHelp": "Vê as infrações de um utilizador.",
    "admin.infractionsNotFound": "Página não encontrada!",
    "admin.infractionsTitle": "Mostrando **infrações** do utilizador **{{username}}#{{discriminator}}**",
    "admin.infractionsFooter": "Atualmente vendo a página {{page}} de {{len}}",
    "admin.infractionsNoReason": "Nenhuma razão especificada",
    "modlogtype.ban": "Ban",
    "modlogtype.warn": "Aviso",
    "modlogtype.mute": "Silenciamento",
    "modlogtype.kick": "Expulsão",
    "modlogtype.softban": "Softban",
    "modlogtype.unban": "Unban",
    "modlogtype.unmute": "Remoção de Silenciamento",
    "admin.unbanHelp": "Desbane um utilizador.",
    "settings.modlogHelp": "Configura o canal que irá registar todas as infrações.",
    "music.queryNotFound": "Nenhum resultado encontrado.",
    "music.premiumSpotifyError": "Apenas os assinantes do Vexera Premium podem carregar listas de reprodução do Spotify! Para mais informações, consulte <https://vexera.io/premium>.",
    "music.premiumSpotifyAlternative": "Alternativamente, há sites que podem [converter listas de reprodução do Spotify em playlists do YouTube](https://bfnt.io/spotify-converter), que você pode visitar se quiser.",
    "music.premiumSpotifyProcessing": "Processando a playlist do Spotify. Isto pode demorar um pouco....",
    "modlog.line6": "**Duração**: {{duration}}",
    "automod.triggered": "[Auto] Filtro acionado {{filterName}}.",
    "automod.warnings": "[Auto] O utilizador recebeu {{warns}} avisos em 24 horas.",
    "meme.logoHelp": "Faz um logotipo Vexera com texto personalizado!",
    "misc.remindHelp": "Define um lembrete.",
    "misc.remindExample1": "O Vexera irá lembrá-lo em 10 minutos para jogar Fortnite.",
    "misc.remindNoTime": "Nenhum tempo especificado!",
    "misc.remindInvalid": "Hora inválida!",
    "misc.remindSuccess": "Ok, vou lembrá-lo para {{text}}.",
    "music.playerLag": "Experienciando atraso? Obtenha recursos dedicados com o [Vexera Premium](https://vexera.io/premium)!",
    "premium.bassStatus": "O baixo está atualmente definido para `{{bass}}`",
    "premium.bassHelp": "Ajusta o baixo da música em reprodução.\nOpções válidas: `none`, `weak`, `medium`, `strong`, `insane`, `wtf`.",
    "settings.localeNotComplete": "🚨 A tradução do idioma {{langname}} só está completada a {{percentage}}%.\nQuer ajudar? Saiba mais em <{{url}}>.",
    "generic.invalidArgValue": "Valor `{{value}}` desconhecido para o argumento `{{arg}}`.",
    "info.healthUnknown": "Desconhecido",
    "premium.statusTransferredFrom": "Este utilizador transferiu a sua subscrição para `{{tag}}`.",
    "premium.statusTransferredTo": "Este utilizador está a beneficiar de uma transferência de subscrição de `{{tag}}`.",
    "info.statsUptime": "Tempo de Atividade",
    "admin.warnHelp": "Cria uma infração de aviso.",
    "premium.donatorsEmpty": "Sem mensagens para mostrar!",
    "premium.premiumHelp": "Mostra informação premium.",
    "premium.statusHelp": "Mostra o status premium.",
    "admin.cleanTooOldError": "Algumas mensagens não foram eliminadas visto que são muito antigas.",
    "info.helpCheckoutPremium": "Veja o nosso premium em {{url}}",
    "meme.memeHelp": "Envia um meme para o canal.",
    "games.osuHelp": "Mostra estatísticas do osu! de um jogador.\nOpções válidas: `best`, `recent` e `user`\nModos válidos: `standard`, `taiko`, `ctb` and `mania`.",
    "games.osuNotFound": "Utilizador não encontrado.",
    "games.osuRecentNotFound": "Partidas recentes não encontradas!",
    "settings.localeExample1": "Define o idioma para Francês.",
    "settings.userlocaleExample1": "Desativa o idioma pessoal e usa o idioma do servidor.",
    "meme.drakeExample1": "Meme do Drake, mas a Tatsu é má e o Vexera é bom",
    "games.osuJoined": "Aderiu",
    "games.osuGames": "Jogos jogados",
    "games.osuPp": "Pontos de Desempenho",
    "games.osuAccuracy": "Precisão",
    "fun.uwuHelp": "uwu uma fwase",
    "generic.tipDashboard": "**Dica!** Isto pode ser configurado em {{url}}",
    "info.helpConfigure": "Configure o bot online em {{url}}",
    "meme.nukeHelp": "Exploda uma imagem",
    "premium.playlistExample5": "Lista todas as playlists do servidor.",
    "premium.playlistNoneFound": "Nenhuma playlist encontrada!",
    "premium.playlistLoadHelp": "Use `{{prefix}}playlist load` para carregar uma playlist.",
    "misc.serverinfoSubscription": "Este servidor tem 1 subscrição **{{sub}}** ativa.",
    "misc.serverinfoFeatures": "Características",
    "misc.serverinfoCreation": "Servidor criado a",
    "misc.userinfoOwner": "**{{username}}** é o dono do servidor de **{{servername}}**.",
    "misc.userinfoJoined": "Juntou-se",
    "misc.userinfoBoosted": "Impulsionou",
    "admin.banBotPermissionError": "Eu não tenho permissão para Banir Membros.",
    "admin.kickBotPermissionError": "Eu não tenho permissão para Expulsar Membros.",
    "admin.vckickError": "Não pude expulsar o utilizador do canal de voz.",
    "admin.roleBotPermissionError": "Eu não tenho permissão para Gerir Cargos.",
    "admin.roleBotPositionError": "Eu não tenho permissão para gerir o cargo `{{role}}`, por favor confirme se o meu cargo mais alto está acima desse.",
    "autorole.autoroleNoEntries": "De momento não há autocargos definidos.\nVeja `{{prefix}}help autorole` para mais informação.",
    "music.notSameChannel": "Você precisa de estar no canal `{{channel}}` para usar este comando!"
}
