{
    "generic.error": "Трапилась непередбачена помилка.",
    "generic.errorCodeblock": "Трапилась непередбачена помилка.\n```{{error}}```",
    "generic.errorID": "Трапилась непередбачена помилка. Якщо ви вважаєте, що це не повинно було трапитися - будь ласка, повідомте ID помилки на сервер підтримки: `{{errorID}}`.",
    "generic.processingTitle": "Обробка",
    "generic.processingDescription": "Ця команда не була оброблена.",
    "generic.insufficientArgs": "Неправильна кількість заданих аргументів, для отримання додаткової інформації про цю команду дивіться {{prefix}}help {{command}}.",
    "generic.insufficientArg": "Ви не вказали аргумент `{{arg}}`.",
    "generic.invalidArg": "Не здатний опрацювати аргумент `{{arg}}`.",
    "generic.guildOnlyError": "Цю команду можно використовувати лише на серверах.",
    "generic.permissionError": "У вас немає прав на використовування цієї команди (Вам необхідно право `{{permission}}`)",
    "generic.discordPermissionError": "Вам необхідно право `{{permission}}` щоб використовувати цю команду.",
    "generic.argNoResponse": "Немає відповіді вже 30 секунд.",
    "generic.promptCancel": "Запит відмінено.",
    "generic.ratelimited": "Будь ласка, зачекайте {{sec}} секунд.",
    "info.healthHelp": "Показує стан сегментів бота",
    "info.healthTitle": "Стан сегментів",
    "info.healthDown": "Оффлайн",
    "info.healthStarting": "Запускається",
    "info.helpHelp": "Показує цю команду",
    "info.helpUsage": "Використання",
    "info.helpPermNode": "Нод прав",
    "info.helpDescription": "Я - багатофункціональний Discord-бот, котрий може програвати музику, слідкувати за порядком на сервері та робити інші забавні та корисні речі.\nНапишіть `{{prefix}}help <команда>` для детального опису будь-якої команди.\n\n**Потрібна поміч? {{support_url}}\nЗапросити бота на свій сервер: {{invite_url}}**\n\n**Порада!** Усі команди можна подивитися на нашій сторінці: **{{commands_url}}**",
    "info.helpDM": "Перевірте свої особисті повідомлення для списку команд!",
    "info.statsUsersVC": "Підключені користувачі",
    "info.statsHelp": "Показує статистику бота",
    "info.clusterinfoHelp": "Показує інформацію про всі кластери",
    "info.inviteInvite": "Запросити: {{url}}",
    "info.inviteSupport": "Підтримка: {{url}}",
    "info.inviteHelp": "Видає URL для запрошення бота.",
    "premium.redeemHelp": "Дозволяє вам використати ключ для Vexera Premium. Будь-ласка, врахуйте, що преміум буде активовано на всіх серверах, котрими володієте **ви**.",
    "premium.redeemInvalid": "Невірний ключ! Переконайтесь що ваш ключ правильний та ще не був активований.",
    "premium.redeemSuccess": "Успіх! Vexera Premium тепер активована на всіх серверах, котрими ви володієте, на **{{days}}** днів.",
    "premium.redeemAlreadyDonator": "У вас вже є активований ключ або підписка!",
    "premium.redeemExtended": "Успіх! Ваша підписка на Vexera Premium була продовжена на **{{days}}** днів.",
    "misc.serverinfoHelp": "Показує інформацію про сервер",
    "misc.serverinfoRoles": "Ролі",
    "misc.userinfoHelp": "Показує інформацію про користувача.",
    "misc.userinfoRoles": "Ролі",
    "perms.permsAddExists": "Це право вже було додано",
    "perms.permsAdd": "Додано право `{{perm}}` для `{{name}}`",
    "perms.permsRemoveError": "Це право не було додано, тож воно не може бути прибрано.",
    "perms.permsRemove": "Право `{{perm}}` видалено у `{{name}}`",
    "perms.permsClear": "Всі права у `{{name}}` видалені",
    "perms.permsListTitle": "Права для {{name}}",
    "perms.permsHelp": "Призначає права для ролі. Для списку прав введіть {{prefix}}perms nodes\nПрава працюють на SexyPEX",
    "perms.permsExample1": "Дати всім права на управління музикою",
    "perms.permsExample2": "Заборонити ролі `Moderator` використання команди cat",
    "perms.permsExample3": "Заборонити користувачу 'luke' використання команди doge",
    "perms.permsExample4": "Показати дозволи для ролі `Moderators`",
    "perms.permsExample5": "Прибрати дозвіл на управління музикою у всіх",
    "perms.permsExample6": "Прибрати всі права для ролі `Moderators`",
    "perms.permsNodesTitle": "Ноди прав",
    "perms.permsNodesDescription": "Додайте `-` перед правом щоб відібрати його у користувача.",
    "admin.banHelp": "Видає бан користувачу та видаляє його повідомлення за останні 24 години.",
    "admin.banPermissionError": "У вас немає прав щоб забанити цього користувача.",
    "admin.banError": "Неможливо забанити користувача.",
    "admin.unbanError": "Неможливо розбанити користувача.",
    "admin.banExample1": "Забанити користувача 'luke' на 1 тиждень ті два дні з причиною 'Advertising'",
    "admin.banExample2": "Забанити користувача 'luke'",
    "admin.muteExample1": "Заглушає користувача 'luke' на один тиждень та 2 дні з причини 'Spamming'",
    "admin.muteExample2": "Забороняє користувачу 'luke' писати в чат",
    "admin.kickHelp": "Кікнути користувача.",
    "admin.kickPermissionError": "У вас немає прав кікнути цього користувача.",
    "admin.kickError": "Неможливо кікнути користувача.",
    "admin.softbanHelp": "Софтбан користувача (кікає користувача та видаляє всі його повідомлення за останні 24 години)",
    "admin.vckickHelp": "Виганяє учасника із голосового каналу",
    "admin.vckickPermissionError": "У вас немає прав вигнати цього користувача із голосового каналу.",
    "admin.vckickBotPermissionError": "У мене немає прав на переміщення учасників.",
    "admin.muteHelp": "Заглушити користувача.",
    "admin.mutePermissionError": "У вас немає прав заглушити цього користувача.",
    "admin.muteSetupError": "У мене немає прав для налаштування ролі {{mutedRoleName}}, будь ласка, переконайтесь, що мої права налаштовані правильно.",
    "admin.muteError": "Неможливо заглушити користувача.",
    "admin.roleHelp": "Управління ролями",
    "admin.roleExample1": "Додати роль `Admins` усім, у кого вже є роль `Moderators`",
    "admin.roleExample2": "Додати роль `Admins` користувачу `luke`",
    "admin.roleExample3": "Прибрати роль `Moderators` у всіх користувачів",
    "admin.rolePermissionError": "У вас немає прав на управління цією роллю.",
    "admin.roleAddError": "Не вдалося додати цю роль.",
    "admin.roleRemoveError": "Не вдалося видалити цю роль.",
    "admin.roleAddMass": "Додаємо цю роль `{{count}}` учасникам, це може зайняти деякий час...",
    "admin.roleRemoveMass": "Прибираємо цю роль у `{{count}}` учасників, це може зайняти деякий час...",
    "admin.cleanHelp": "Очищає повідомлення у каналі.",
    "admin.cleanExample1": "Удаляє 10 повідомлень",
    "admin.cleanExample2": "Видаляє 100 повідомлень",
    "admin.cleanExample3": "Видаляє 100 повідомлень користувача `luke`",
    "admin.cleanBotPermissionError": "У мене немає прав на управління повідомленнями.",
    "settings.greetingHelp": "Встановлює привітальне повідомлення на сервері.",
    "settings.greetingExample1": "Відправляє `Welcome @luke to <Назва твого сервера>!` до #general коли luke заходить на твій сервер.",
    "settings.greetingExample2": "Вітає користувача на твоєму сервері у персональних повідомленнях.",
    "settings.greetingExample3": "Відключає повідомлення.",
    "settings.greetingTextUndefined": "Ви не вказали привітальне повідомлення!",
    "settings.greetingSet": "Привітання успішно встановлено.",
    "settings.greetingDisabled": "Привітання успішно відключено.",
    "settings.farewellHelp": "Встановлює повідомлення, коли користувач покидає сервер.",
    "settings.farewellExample1": "Відправляє `luke left <твій сервер>... bye bye luke..` до #general кли luke покидає твій сервер.",
    "settings.farewellExample2": "Відключає прощання",
    "settings.farewellTextUndefined": "Ви не вказали прощальне повідомлення!",
    "settings.farewellSet": "Прощальне повідомлення успішно встановлено.",
    "settings.farewellDisabled": "Прощальне повідомлення успішно відключено.",
    "settings.prefixHelp": "Встановлює префікс для команд.",
    "settings.prefixExample1": "Встановлюе префікс на `!`",
    "settings.prefixExample2": "Відключає кастомний префікс для команд.",
    "settings.prefixDisable": "Префікс успішно відключено. Тепер усі команди потрібно використовувати так: `{{prefix}}ping`",
    "settings.prefixSet": "Префікс успішно встановлено. Тепер усі команди потрібно використовувати так: `{{prefix}}ping`",
    "settings.logHelp": "Встановлюе канал, у який будуть відправлятися події.",
    "settings.logExists": "Подія `{{event}}` вже була додана!",
    "settings.logAdd": "Додано(і) подію(ї) {{events}} до каналу `{{channel}}`",
    "settings.logRemoveError": "`{{event}}` не була додана, тому не може бути видалена.",
    "settings.modlogDisabled": "Канал лога модерації успішно відключений.",
    "settings.logRemove": "Подія(ї) {{events}} були видалені з каналу `{{channel}}`",
    "settings.logList": "Події каналу #{{channel}}",
    "settings.logCleared": "Всі події каналу `#{{channel}}` видалені.",
    "settings.logExample1": "Відправляє повідомлення коли користувач приєднується або покидає сервер",
    "settings.logExample2": "Відправляє бани та кіки користівачів до #mod-log",
    "settings.modlogSet": "Канал для логів модерації успішно встановлено.",
    "settings.channeltoggleHelp": "Відключає команди у каналі.",
    "settings.channeltoggleEnabled": "Команди у цьому каналі включені.",
    "settings.channeltoggleDisabled": "Команди у цьому каналі виключені.",
    "settings.accessroleHelp": "Встановлюе роль, яку потрібно мати, щоб керувати ботом. Використайте `{{prefix}}accessrole disable` щоб відключити цю функцію",
    "settings.accessroleDisabled": "Функція ролі доступу до бота успішно відключена.",
    "settings.accessroleSet": "Роль доступу до бота успішно встановлена.",
    "settings.localeHelp": "Встановлюе локалізацію. Введіть `{{prefix}}locale list` для списку локалізацій.",
    "settings.localeTitle": "Локалізації",
    "settings.localeCurrent": "Поточна мова: {{locale}}",
    "settings.localeSet": "Локалізація успішно встановлена.",
    "settings.userlocaleHelp": "Встановлює локалізацію для користувача. Введіть `{{prefix}}userlocale list`для списку локалізацій.\nНапишіть `{{prefix}}userlocale disable` щоб використати мову сервера.",
    "settings.userlocaleTitle": "Локалізації",
    "settings.userlocaleCurrent": "Поточна локалізація: {{locale}}",
    "settings.userlocaleSet": "Локалізація для користувача успішно встановлена.",
    "autorole.autoroleHelp": "Встановлює ролі. Переконайтеся, що моя роль пріорітетніша за ту, яку я повинен видавати, інакше у мене не буде на це прав.",
    "autorole.autoroleExample1": "Дає роль `Humans` новим користувачам.",
    "autorole.autoroleExample2": "Тепер користувачі можуть використовувати команду `{{prefix}}getrole Announcements` щоб отримати цю роль.",
    "autorole.autoroleExample3": "Новим ботам буде присвоєно цю роль.",
    "autorole.autoroleExample4": "Відключає автоматичну видачу ролі `Humans`.",
    "autorole.autoroleExample5": "Показує список усіх автоматично видаваємих ролей.",
    "autorole.autoroleAdd": "Успішно додана роль `{{role}}` типу `{{type}}`.",
    "autorole.autoroleTypeRemove": "Видалено усі ролі з типом `{{type}}`.",
    "autorole.autoroleRoleRemove": "Видалено роль `{{role}}` типу `{{type}}`.",
    "autorole.autoroleTitle": "Авторолі",
    "autorole.getroleHelp": "Видає роль, яку було завчасно визначено командою {{prefix}}autorole",
    "autorole.getroleNoConditon": "Цю роль неможливо отримати за допомогою команди, власник може додати цю функцію, написав `{{prefix}}autorole add get {{role}}`.",
    "autorole.autoroleNoPermission": "Ви не мможете управляти ролями, що вище вашої за пріорітетом.",
    "fun.chucknorrisHelp": "Відповідає жартом про Чака Норріса.",
    "image.catHelp": "Показує милого кота!",
    "image.dogHelp": "Показує милу собаку!",
    "image.dogeHelp": "Показує милу Doge!",
    "generic.poweredBy": "Джерело: {{url}}",
    "image.weebHelp": "Відправляє weeb-картинки. Для списку типів див. `{{prefix}}weeb types`.",
    "image.weebTypes": "Дійсні типи: {{types}}",
    "image.weebError": "Зображення не знайдено!",
    "fun.8ballHelp": "Запитай пізніше",
    "fun.8ballReply": "Магічний шар для більярду каже... {{result}}",
    "fun.yomammaHelp": "Відповідає жартом про твою мамашу, можливо грубим!",
    "fun.urbanHelp": "Шукає слово у Urban Dictionary.",
    "fun.urbanError": "Неможливо знайти цей термін!",
    "image.xkcdHelp": "Відправляє комікс XKCD",
    "meme.illegalHelp": "Перетворює текст на щось нелегальне!",
    "meme.illegalCharLimit": "Усі ми знаємо, що Трамп тупий - він навіть не може це опрацювати!",
    "meme.illegalError": "Здається, трамп знову лажанув і не зміг опрацювати цей текст!",
    "misc.botlistHelp": "Показує топ ботів Carbonitex.",
    "misc.invitedHelp": "Показує, скільки людей користувач запросив на сервер.",
    "misc.invitedNoPerm": "У мене немає доступу до перегляду запрошень.",
    "misc.invitedText": "{{username}} запросив {{count}} користувачів на сервер \"{{guild}}\"",
    "fun.asciiHelp": "Робить ASCII-картинку з текста. Список шрифтів можна подивитися на https://github.com/patorjk/figlet.js/tree/master/fonts.",
    "fun.asciiExample1": "Показує `beep` у шрифті `ghost`",
    "misc.wolframHelp": "Робить запит у системі Wolfram.",
    "misc.wolframError": "Щось пішло не так... Може, спробуєте щось інше?",
    "premium.donatorsHelp": "Показує топ-10 донатерів разом з їх персоналізованими повідомленнями. Донатери можуть задати своє повідомлення за допомогою `{{prefix}}donators <повідомлення>`",
    "premium.donatorsLimit": "Ліміт повідомлення - 50 символів.",
    "music.playerQueueEnd": "Черга закінчилась.",
    "music.playerInactive": "Я покинув канал з-за бездіяльності.",
    "music.playerErrorDescription": "Під час отримання інформаціі про пісню виникла помилка.",
    "music.playerErrorPlayingDescription": "При програванні цієї пісні виникла помилка.",
    "music.playerRequested": "Запропоновано",
    "music.playHelp": "Грає пісню. Ця команда підтримує велику кількість сайтів.",
    "music.playExample1": "Шукає 'marble soda' у YouTube",
    "music.playExample2": "Грає пісню з SoundCloud за допомогою прямого посилання",
    "music.playExample3": "Грає відео з YouTube, використовуючи посилання",
    "music.playEnqueued": "Пісня `{{title}}` додана до черги і знаходится на `{{position}}` позиції.",
    "music.playSearchResult": "Результат пошуку",
    "music.playSearchUsage": "Введіть номер треку, який ви хочете почути (наприклад, '1') або 'cancel' для відміни.",
    "music.noVoiceChannel": "Ви не у голосовому каналі!",
    "music.botNoVoiceChannel": "Я зараз не граю музику!",
    "music.noJoinPermission": "У мене немає прав для підключення до вашого голосового каналу.",
    "music.joinError": "При підключенні до голосового канала сталася помилка.",
    "music.enqueueMultiple": "Додав `{{resultLength}}` пісень до черги (опрацьовано за `{{timeTaken}}` секунд)",
    "music.skipHelp": "Проголосувати за пропуск пісні. Користувачі з правом `music.forceskip` можуть пропустити без голосування.",
    "music.skipping": "Пропускаю...",
    "music.skipAlreadyVoted": "Ви вже проголосували за пропуск!",
    "music.skipVoted": "Ваш голос прийнято! 👍 ({{votes}} з {{total}})",
    "music.joinHelp": "Приєднується до голосового каналу.",
    "music.leaveHelp": "Бот покидає голосовий канал.",
    "music.pauseHelp": "Ставить музику на паузу.",
    "music.resumeHelp": "Продовжує грати музику.",
    "music.npHelp": "Показує, інформацію про пісню, що зараз грає.",
    "music.npNotPlaying": "Зараз нічого не грає.",
    "music.clearHelp": "Очищає чергу.",
    "music.shuffleHelp": "Перемішує чергу.",
    "music.backHelp": "Повертається до останньої композиції.",
    "music.queueHelp": "Показує поточну чергу.",
    "music.queueHeader": "Сторінка {{page}}/{{num}}",
    "music.queueEmpty": "Черга пуста!",
    "music.queuePageNotFound": "Сторінку не знайдено!",
    "music.queueTrack": "{{index}}) {{title}} - Додав(-ла) {{requester}}",
    "premium.volumeHelp": "Задає гучність поточної музики.",
    "premium.volumeStatus": "Зараз гучність встановлена на {{percent}}%",
    "music.trackNotFound": "Пісню не знайдено!",
    "music.queryNotFound": "Нічого не знайдено.",
    "music.commandDonator": "Тільки преміум-підписники можутьвикористовувати цю команду! Для подальшої інформації див. <https://vexera.io/premium>",
    "music.premiumSpotifyError": "Тільки підписники Vexera Premium можуть завантажувати плейлісти зі Spotify! Для подальшої інформації див. <https://vexera.io/premium>.",
    "music.premiumSpotifyAlternative": "Як альтернатива існують сайти, які можуть [конвертувати плейлісти Spotify у плейлісти YouTube](https://bfnt.io/spotify-converter). Ти можеш скористатися ними, якщо не хочеш платити.",
    "music.premiumSpotifyProcessing": "Оброблюю плейліст Spotify... Це може зайняти деякий час.",
    "premium.volumeLimit": "Встановлюю гучність на 150%. Я хочу захистити ваши барабанні перетинки!",
    "music.repeatHelp": "Грає пісню ще раз.",
    "music.repeatExample1": "Відключити повтор.",
    "music.repeatExample2": "Повторювати поточну пісню.",
    "music.repeatExample3": "Повторити всю чергу.",
    "music.searchHelp": "Дозволяє обрати пісню через красиве меню.",
    "music.inactiveDisconnect": "Вийшов з голосового каналу з-за бездіяльності.",
    "music.donationMessage": "Якщо вам подобається слухати музику разом з Vexera, зацініть Vexera Premium щоб отримати максимум від Vexera. <https://vexera.io/premium>",
    "premium.autoplayHelp": "Встановлює пісню (плейліст, пряму трансляцію) для програвання, доки черга пісень пуста.",
    "premium.autoplayExample1": "Включає автопрогравання з вказанного посилання.",
    "premium.autoplayExample2": "Виключає автпрогравання.",
    "music.jumpHelp": "Перехід до конкретного місця у черзі.",
    "premium.dumpHelp": "Створює сторінку з інформацією про поточну чергу, яку можна завантажити за допомогою `{{prefix}}play`. Введіть `{{prefix}}dump all` щоб зберегти всю поточну чергу на сторінці.",
    "premium.dumpCreated": "Поточна черга збережена! {{url}} - введіть `{{prefix}}play` щоб її завантажити.",
    "music.lyricsHelp": "Показує текст конретної пісні / пісні, що зараз грає.",
    "music.lyricsNoQuery": "Ви не вказали пісню!",
    "music.lyricsNotFound": "Слова пісні не знайдені!",
    "info.nodeinfoHelp": "Показує інформацію про голосові ноди.",
    "meme.drakeHelp": "Створює мем з Дрейком. Параметром є користувач або посилання на картинку.",
    "meme.mistakeHelp": "Для великих помилок.",
    "meme.whodidthisHelp": "ХТО ЦЕ ЗРОБИВ? :joy: :joy: :joy:.",
    "meme.handicappedHelp": "Вибачайте! Це місце тільки для інвалідів!",
    "meme.magikHelp": "Краща команда у всесвіті.",
    "meme.needsmorejpegHelp": "Погіршує якість картинки.",
    "meme.gmagikHelp": "{{prefix}}magik, але для гіфок.",
    "music.queueLimit": "У черзі не може бути більше 2000 пісень!",
    "premium.premiumTitle": "Щ таке Vexera Premium?",
    "premium.premiumInfo": "Vexera Premium надає цілу купу можливостей за невеликі гроші. Більше інформації на https://vexera.io/premium",
    "premium.premiumStatus": "Перевіряє наявність преміум-статусу у користувача.",
    "premium.statusAmount": "Сума пожертвування",
    "premium.statusDatePledged": "Дата пожертвування",
    "premium.statusDeclined": "**Увага:** Оплата була відхилена. Преміум-можливості цього користувача будуть відключені 5-го числа цього місяця.",
    "premium.statusExpiry": "Підписка закінчується",
    "premium.statusType": "Тип",
    "premium.statusNotDonator": "Цей користувач не є преміум підписником!",
    "music.seekHelp": "Стрибає на необхідну позицію у пісні.",
    "music.seekInvalid": "Вказано невірний час!",
    "info.premiumExpiring": "Ваша підписка на Vexera Premium закінчується {{expire}}. Щоб залишитись преміум-підписником, будь ласка, зайдіть на  https://vexera.io/premium.",
    "music.deleteHelp": "Видаляє пісню з черги.",
    "music.deletePlaying": "Я не можу видалити пісню, яку зараз граю.",
    "music.deleteRemoved": "`{{name}}` успішно видалена з черги.",
    "premium.transferHelp": "Передає преміум-підписку іншому користувачу. Введіть `{{prefix}}transfer disable` щоб відключити.",
    "premium.transferSubscriptionExists": "У цього користувача вже є преміум-підписка!",
    "premium.transferActive": "У вас вже є активний трансфер підписки!",
    "premium.transferTransferred": "Трансфер підписки користувачу **{{user}}** успішно включений!",
    "premium.transferDisable": "Трансфер підписки успішно вимкнено!",
    "games.fortniteError": "Помилка при сборі даних: {{error}}",
    "games.fortniteHelp": "Шукає користувача у Fortnite.",
    "music.viewWebsite": "Подивитись на vexera.io",
    "premium.playlistNameMax": "Ім'я плейлісту може складатися із максимум 20 символів!",
    "premium.playlistCreated": "Плейліст `{{name}}` успішно створений!",
    "premium.playlistNotFound": "Плейліст `{{name}}` не знайдений!",
    "premium.playlistLoad": "Плейліст `{{name}}` загружений до черги!",
    "premium.playlistDeleted": "Плейліст `{{name}}` успішно видалено!",
    "premium.playlistHelp": "Дозволяє зберігати та загружати черги.",
    "premium.playlistExample1": "Створює плейліст 'Dubstep' із поточної черги пісень.",
    "premium.playlistExample2": "Загружає пісні з плейлісту 'Dubstep' в чергу.",
    "premium.playlistExample3": "Удаляє плейліст 'Dubstep'",
    "premium.playlistExample4": "Зберігає плейліст 'Dubstep' в Інтернеті",
    "modlog.none": "Функція логів модерації не налаштована!",
    "modlog.invalidCase": "Невірний запис у лозі!",
    "modlog.line1": "**{{type}}** | Запис {{caseID}}",
    "modlog.line2": "**Користувач**: {{username}}#{{discriminator}} ({{id}}) (<@{{id}}>)",
    "modlog.line3": "**Причина**: {{reason}}",
    "modlog.line4": "**Модератор**: {{username}}#{{discriminator}}",
    "modlog.line5": "**Видано**: {{date}}",
    "modlog.line6": "**Протяжність**: {{duration}}",
    "modlog.noReason": "_Модератор, будь ласка, введіть `{{prefix}}reason {{caseID}} <причина>`_",
    "admin.reasonHelp": "Встановлює причину покарання у логах модерації.",
    "admin.warn": "Видає користувачу попередження.",
    "admin.infractionsHelp": "Показує порушення користувача.",
    "admin.infractionsNotFound": "Сторінка не знайдена!",
    "admin.infractionsTitle": "Показую **порушення** користувача **{{username}}#{{discriminator}}**",
    "admin.infractionsFooter": "Сторінка {{page}} з {{len}}",
    "admin.infractionsNoReason": "Причину не вказано",
    "modlogtype.ban": "Бан",
    "modlogtype.warn": "Попередження",
    "modlogtype.mute": "Мут",
    "modlogtype.kick": "Кік",
    "modlogtype.softban": "Софтбан",
    "modlogtype.unban": "Розбан",
    "modlogtype.unmute": "Розмут",
    "automod.triggered": "[Auto] Спрацював фільтр {{filterName}}.",
    "automod.warnings": "[Auto] Користувач отримав {{warns}} попереджень за останні 24 години.",
    "admin.unbanHelp": "Розбанює користувача.",
    "settings.modlogHelp": "Встановлює канал, у якому будуть записуватися всі покарання.",
    "meme.logoHelp": "Робить логотип Vexera з кастомним текстом!",
    "misc.remindHelp": "Встановлює нагадування.",
    "misc.remindExample1": "Через 10 хвилин Vexera нагадає вам пограти у Fortnite.",
    "misc.remindNoTime": "Час не вказано!",
    "misc.remindInvalid": "Невірний час!",
    "misc.remindSuccess": "Добре, я нагадаю вам {{text}}.",
    "music.playerLag": "Відчуваєте лаги? Ми виділяємо додаткові ресурси спеціально для підписників [Vexera Premium](https://vexera.io/premium)!",
    "info.pingHelp": "Понг!",
    "info.statsVersion": "Версія",
    "info.statsLibrary": "Бібліотека",
    "info.statsOwner": "Власник",
    "info.statsGuilds": "Сервери",
    "info.statsUsers": "Користвачі",
    "info.statsStreams": "Голосові потоки",
    "info.statsCluster": "Кластер",
    "info.statsShard": "Сегмент",
    "info.statsWebsite": "Сайт",
    "info.statsSupport": "Підтримка",
    "info.statsInvite": "Запросити",
    "misc.serverinfoOwner": "Власник",
    "misc.serverinfoMembers": "Учасники",
    "misc.serverinfoMembersValue": "{{members}} ({{bots}} ботів)",
    "misc.serverinfoVerification": "Рівень веріфікації",
    "misc.serverinfoChannels": "Кількість каналів",
    "misc.userinfoUsername": "Ім'я користувача",
    "misc.userinfoDiscriminator": "Унікальний номер",
    "music.playerErrorTitle": "Помилка",
    "music.playerDuration": "Тривалість",
    "misc.serverinfoID": "ID",
    "misc.userinfoID": "ID",
    "misc.userinfoCreation": "Користувач створений",
    "premium.bassStatus": "Бас зараз встановлено на `{{bass}}`",
    "premium.bassHelp": "Регулює бас для музики.\nМожливі опції: `none`, `weak`, `medium`, `strong`, `insane`, `wtf`.",
    "settings.localeNotComplete": "🚨 Переклад {{langname}} завершений тільки на {{percentage}}%.\nХочете допомогти? Подробиці на <{{url}}>.",
    "generic.invalidArgValue": "Незнайома кількість `{{value}}` для аргументу `{{arg}}`.",
    "premium.statusTransferredFrom": "Цей користувач змінив свою підписку на `{{tag}}`.",
    "premium.statusTransferredTo": "Цей користувач є бенефіціаром підписки від `{{tag}}`.",
    "info.statsUptime": "Час роботи",
    "info.healthUnknown": "Невідомо",
    "admin.warnHelp": "Створює попередження.",
    "premium.donatorsEmpty": "Немає повідомлень для показу!",
    "premium.premiumHelp": "Показує інформацію про преміум підписку.",
    "premium.statusHelp": "Показує статус преміум підписки.",
    "admin.cleanTooOldError": "Деякі повідомлення не були видалені тому що вони занадто старі.",
    "meme.memeHelp": "Відправляє мем в цей канал.",
    "info.helpCheckoutPremium": "Подробиці на {{url}}",
    "games.osuHelp": "Показує статистику osu! для гравця.\nМожливі опції: `best`, `recent` and `user`.\nМожливі режими: `standard`, `taiko`, `ctb` та `mania`.",
    "games.osuNotFound": "Користувач не знайдений.",
    "games.osuRecentNotFound": "Недавніх ігор не знайдено!",
    "games.osuJoined": "Приєднався",
    "games.osuGames": "Зіграно ігор",
    "games.osuPp": "Бали продуктивності",
    "games.osuAccuracy": "Точність",
    "fun.uwuHelp": "UwU-фікувати рядок",
    "settings.localeExample1": "Встановлює французську локалізацію.",
    "settings.userlocaleExample1": "Виключає вашу персональну локалізацію та переключає на мову сервера.",
    "meme.drakeExample1": "Мэм з Дрейком, але Татсу зло, а Вексера - добро",
    "generic.tipDashboard": "**Порада!** Це можна налаштувати на {{url}}",
    "info.helpConfigure": "Налаштуйте бота онлайн на {{url}}",
    "meme.nukeHelp": "Розбомбити зображення",
    "premium.playlistExample5": "Показує список усіх плейлістів цього серверу.",
    "premium.playlistNoneFound": "Плейлістів не знайдено!",
    "premium.playlistLoadHelp": "Користуйтесь `{{prefix}}playlist load` щоб завантажити плейліст."
}
